Does the AMU prophylactic use increase the susceptibility to infections?
…
Lets try it:

lapply(0:2, lagging, df = viparc, var = c("colistin_use", "oxytetracycline_use")) %>% 
  purrr::reduce(dplyr::full_join, c("farm", "flock", "week")) %>% 
  dplyr::left_join(viparc, ., c("farm", "flock", "week")) %>% 
  dplyr::select(farm, flock, week, dplyr::matches("colistin|oxytetracycline"))

## # A tibble: 5,564 x 11
##    farm  flock  week colistin_use oxytetracycline colistin_use0 oxytetracycline colistin_use1 oxytetracycline colistin_use2
##    <chr> <int> <int> <lgl>        <lgl>            <lgl>         <lgl>            <lgl>         <lgl>            <lgl>        
##  1 75-0     1     1 TRUE         TRUE             TRUE          TRUE             NA            NA               NA           
##  2 75-0     1     2 FALSE        FALSE            FALSE         FALSE            TRUE          TRUE             NA           
##  3 75-0     1     3 FALSE        FALSE            FALSE         FALSE            FALSE         FALSE            TRUE         
##  4 75-0     1     4 FALSE        FALSE            FALSE         FALSE            FALSE         FALSE            FALSE        
##  5 75-0     1     5 FALSE        FALSE            FALSE         FALSE            FALSE         FALSE            FALSE        
##  6 75-0     1     6 FALSE        FALSE            FALSE         FALSE            FALSE         FALSE            FALSE        
##  7 75-0     1     7 FALSE        FALSE            FALSE         FALSE            FALSE         FALSE            FALSE        
##  8 75-0     1     8 FALSE        FALSE            FALSE         FALSE            FALSE         FALSE            FALSE        
##  9 75-0     1     9 FALSE        TRUE             FALSE         TRUE             FALSE         FALSE            FALSE        
## 10 75-0     1    10 FALSE        FALSE            FALSE         FALSE            FALSE         TRUE             FALSE        
## #  with 5,554 more rows, and 1 more variable: oxytetracycline_use2 <lgl>
…
The filtering can be performed in one step:

viparc %>% 
  dplyr::filter(prophylactic(., c("malaise", "diarrhoea"), c("colistin_use", "oxytetracycline_use"), 2, 2))

## # A tibble: 2,940 x 54
##    farm  flock  week respiratory diarrhoea cns   malaise leg_lesions sudden_death amoxicillin_use ampicillin_use apramycin_use
##    <chr> <int> <int> <lgl>       <lgl>     <lgl> <lgl>   <lgl>       <lgl>        <lgl>           <lgl>          <lgl>        
##  1 75-0     1     1 FALSE       FALSE     FALSE FALSE   FALSE       TRUE         FALSE           FALSE          FALSE        
##  2 75-0     1     4 FALSE       FALSE     FALSE FALSE   FALSE       FALSE        FALSE           FALSE          FALSE        
##  3 75-0     1     5 FALSE       FALSE     FALSE FALSE   FALSE       FALSE        FALSE           FALSE          FALSE        
##  4 75-0     1     6 FALSE       FALSE     FALSE FALSE   FALSE       TRUE         FALSE           FALSE          FALSE        
##  5 75-0     1     7 FALSE       FALSE     FALSE FALSE   FALSE       FALSE        FALSE           FALSE          FALSE        
##  6 75-0     1     8 FALSE       FALSE     FALSE FALSE   FALSE       TRUE         FALSE           FALSE          FALSE        
##  7 75-0     1     9 FALSE       FALSE     FALSE FALSE   FALSE       FALSE        FALSE           FALSE          FALSE        
##  8 75-0     1    14 FALSE       FALSE     FALSE FALSE   FALSE       FALSE        FALSE           FALSE          FALSE        
##  9 75-0     1    15 FALSE       FALSE     FALSE FALSE   FALSE       FALSE        FALSE           FALSE          FALSE        
## 10 75-0     1    16 FALSE       FALSE     FALSE FALSE   FALSE       FALSE        FALSE           FALSE          FALSE        
## #  with 2,930 more rows, and 42 more variables: cefadroxil_use <lgl>, cefotaxime_use <lgl>, ceftiofur_use <lgl>, cephalexin_use <lgl>,
## #   chloramphenicol_use <lgl>, ciprofloxacin_use <lgl>, colistin_use <lgl>, doxycycline_use <lgl>, enramycin_use <lgl>,
## #   enrofloxacin_use <lgl>, erythromycin_use <lgl>, florfenicol_use <lgl>, flumequine_use <lgl>, gentamicin_use <lgl>,
## #   josamycin_use <lgl>, kitasamycin_use <lgl>, lincomycin_use <lgl>, marbofloxacin_use <lgl>, methenamine_use <lgl>,
## #   neomycin_use <lgl>, norfloxacin_use <lgl>, oxytetracycline_use <lgl>, spectinomycin_use <lgl>, spiramycin_use <lgl>,
## #   streptomycin_use <lgl>, sulfachloropyridazine_use <lgl>, sulfadiazine_use <lgl>, sulfadimethoxine_use <lgl>,
## #   sulfadimidine_use <lgl>, sulfaguanidin_use <lgl>, sulfamethazine_use <lgl>, sulfamethoxazole_use <lgl>,
## #   sulfamethoxypyridazine_use <lgl>, sulphamethoxazole_use <lgl>, sulphathiazole_use <lgl>, tetracycline_use <lgl>,
## #   thiamphenicol_use <lgl>, tiamulin_use <lgl>, tilmicosin_use <lgl>, trimethoprim_use <lgl>, tylosin_use <lgl>, unknown_use <lgl>
…
where outcome is a vector of clinical signs names used to compute the outcome, loc is the duration, in weeks, of the observation period and name is the name of the generated variable. Lets try it:

viparc[356:386, ] %>% 
  dplyr::mutate(disease = make_outcome(., c("malaise", "diarrhoea"), 2)) %>% 
  dplyr::select(farm, flock, week, malaise, diarrhoea, disease)

## # A tibble: 31 x 6
##    farm   flock  week malaise diarrhoea disease
##    <chr>  <int> <int> <lgl>   <lgl>     <lgl>  
##  1 75-004     7    13 FALSE   FALSE     FALSE  
##  2 75-004     7    14 FALSE   FALSE     FALSE  
##  3 75-004     7    15 FALSE   FALSE     FALSE  
##  4 75-004     7    16 FALSE   FALSE     NA     
##  5 75-004     7    17 FALSE   FALSE     NA     
##  6 75-005     1     1 TRUE    TRUE      TRUE   
##  7 75-005     1     2 TRUE    TRUE      TRUE   
##  8 75-005     1     3 TRUE    TRUE      FALSE  
##  9 75-005     1     4 FALSE   FALSE     FALSE  
## 10 75-005     1     5 FALSE   FALSE     FALSE  
## #  with 21 more rows
…
make_exposure <- function(df, antimicrobials) {
  require(magrittr)
  df %>%
    dplyr::select(antimicrobials) %>%
    rowSums() %>%
    as.logical()
}

Where antimicrobials is a vector of antimicrobials names that should be considered to compute the exposure. Lets try it:

viparc %>% 
  dplyr::mutate(amu = make_exposure(., c("colistin_use", "oxytetracycline_use"))) %>% 
  dplyr::select(farm, flock, week, colistin_use, oxytetracycline_use, amu)

## # A tibble: 5,564 x 6
##    farm   flock  week colistin_use oxytetracycline_use amu  
##    <chr>  <int> <int> <lgl>        <lgl>               <lgl>
##  1 75-001     1     1 TRUE         TRUE                TRUE 
##  2 75-001     1     2 FALSE        FALSE               FALSE
##  3 75-001     1     3 FALSE        FALSE               FALSE
##  4 75-001     1     4 FALSE        FALSE               FALSE
##  5 75-001     1     5 FALSE        FALSE               FALSE
##  6 75-001     1     6 FALSE        FALSE               FALSE
##  7 75-001     1     7 FALSE        FALSE               FALSE
##  8 75-001     1     8 FALSE        FALSE               FALSE
##  9 75-001     1     9 FALSE        TRUE                TRUE 
## 10 75-001     1    10 FALSE        FALSE               FALSE
## #  with 5,554 more rows
…
Lets try it:

viparc %>% 
  dplyr::mutate(amu_first_weeks = first_weeks(., c("amoxicillin_use", "ampicillin_use"))) %>%
  dplyr::select(farm, flock, week, amoxicillin_use, ampicillin_use, amu_first_weeks)

## # A tibble: 5,564 x 6
##    farm   flock  week amoxicillin_use ampicillin_use amu_first_weeks
##    <chr>  <int> <int> <lgl>           <lgl>          <lgl>          
##  1 75-001     1     1 FALSE           FALSE          FALSE          
##  2 75-001     1     2 FALSE           FALSE          FALSE          
##  3 75-001     1     3 FALSE           FALSE          FALSE          
##  4 75-001     1     4 FALSE           FALSE          FALSE          
##  5 75-001     1     5 FALSE           FALSE          FALSE          
##  6 75-001     1     6 FALSE           FALSE          FALSE          
##  7 75-001     1     7 FALSE           FALSE          FALSE          
##  8 75-001     1     8 FALSE           FALSE          FALSE          
##  9 75-001     1     9 FALSE           FALSE          FALSE          
## 10 75-001     1    10 FALSE           FALSE          FALSE          
## #  with 5,554 more rows

And with the first 2 weeks:

viparc %>% 
  dplyr::mutate(amu_first_weeks = first_weeks(., c("amoxicillin_use", "ampicillin_use"), 2)) %>% 
  dplyr::select(farm, flock, week, amoxicillin_use, ampicillin_use, amu_first_weeks)

## # A tibble: 5,564 x 6
##    farm   flock  week amoxicillin_use ampicillin_use amu_first_weeks
##    <chr>  <int> <int> <lgl>           <lgl>          <lgl>          
##  1 75-001     1     1 FALSE           FALSE          FALSE          
##  2 75-001     1     2 FALSE           FALSE          FALSE          
##  3 75-001     1     3 FALSE           FALSE          FALSE          
##  4 75-001     1     4 FALSE           FALSE          FALSE          
##  5 75-001     1     5 FALSE           FALSE          FALSE          
##  6 75-001     1     6 FALSE           FALSE          FALSE          
##  7 75-001     1     7 FALSE           FALSE          FALSE          
##  8 75-001     1     8 FALSE           FALSE          FALSE          
##  9 75-001     1     9 FALSE           FALSE          FALSE          
## 10 75-001     1    10 FALSE           FALSE          FALSE          
## #  with 5,554 more rows

Looking at another cycle from another farm:

viparc %>% 
  dplyr::mutate(amu_first_weeks = first_weeks(., c("amoxicillin_use", "ampicillin_use"))) %>% 
  dplyr::select(farm, flock, week, amoxicillin_use, ampicillin_use, amu_first_weeks) %>% 
  dplyr::filter(farm == "75-013")

## # A tibble: 54 x 6
##    farm   flock  week amoxicillin_use ampicillin_use amu_first_weeks
##    <chr>  <int> <int> <lgl>           <lgl>          <lgl>          
##  1 75-013     1     1 TRUE            FALSE          TRUE           
##  2 75-013     1     2 FALSE           FALSE          TRUE           
##  3 75-013     1     3 FALSE           FALSE          TRUE           
##  4 75-013     1     4 FALSE           FALSE          TRUE           
##  5 75-013     1     5 FALSE           FALSE          TRUE           
##  6 75-013     1     6 FALSE           FALSE          TRUE           
##  7 75-013     1     7 FALSE           FALSE          TRUE           
##  8 75-013     1     8 FALSE           FALSE          TRUE           
##  9 75-013     1     9 FALSE           FALSE          TRUE           
## 10 75-013     1    10 TRUE            FALSE          TRUE           
## #  with 44 more rows
…
Simple use of a Fisher exact test, without any co-variable:

viparc %>% 
  dplyr::mutate(amu = make_exposure(., c("colistin_use", "oxytetracycline_use")),
                disease = make_outcome(., c("malaise", "diarrhoea"), 2)) %>% 
  dplyr::filter(prophylactic(., c("malaise", "diarrhoea"),
                             c("colistin_use", "oxytetracycline_use"), 2, 2)) %>%
  # (filtering has to be after make_exposure() and make_outcome() calls)
  dplyr::select(amu, disease) %>% 
  na.exclude() %T>% print() %$% # na.exclude() has to be after the selection
  table(amu, disease) %T>% print() %>% 
  fisher.test()

## # A tibble: 2,411 x 2
##    amu   disease
##    <lgl> <lgl>  
##  1 TRUE  FALSE  
##  2 FALSE FALSE  
##  3 FALSE FALSE  
##  4 FALSE FALSE  
##  5 FALSE FALSE  
##  6 FALSE FALSE  
##  7 TRUE  FALSE  
##  8 FALSE FALSE  
##  9 FALSE FALSE  
## 10 TRUE  FALSE  
## #  with 2,401 more rows
##        disease
## amu     FALSE TRUE
##   FALSE  1932  276
##   TRUE    149   54
…
Logistic regression

A logistic regression can equivalently be used:

viparc %>% 
  dplyr::mutate(amu = make_exposure(., c("colistin_use", "oxytetracycline_use")),
                disease = make_outcome(., c("malaise", "diarrhoea"), 2)) %>% 
  dplyr::filter(prophylactic(., c("malaise", "diarrhoea"),
                             c("colistin_use", "oxytetracycline_use"), 2, 2)) %>% 
  dplyr::select(amu, disease) %>% 
  na.exclude() %T>% print() %T>% {with(., table(amu, disease)) %>% print()} %>% 
  glm(disease ~ amu, binomial, .) %>% 
  summary()

## # A tibble: 2,411 x 2
##    amu   disease
##    <lgl> <lgl>  
##  1 TRUE  FALSE  
##  2 FALSE FALSE  
##  3 FALSE FALSE  
##  4 FALSE FALSE  
##  5 FALSE FALSE  
##  6 FALSE FALSE  
##  7 TRUE  FALSE  
##  8 FALSE FALSE  
##  9 FALSE FALSE  
## 10 TRUE  FALSE  
## #  with 2,401 more rows
##        disease
## amu     FALSE TRUE
##   FALSE  1932  276
##   TRUE    149   54
…
##  [1] "a1" "b1" "c1" "d1" "e1" "a2" "b2" "c2" "d2" "e2" "a3" "b3" "c3" "d3" "e3"

Lets now consider the following example:

(tmp <- viparc %>% 
  dplyr::mutate(amu = make_exposure(., c("colistin_use", "oxytetracycline_use")),
                disease = make_outcome(., c("malaise", "diarrhoea"), 2),
                amu_first_weeks = first_weeks(., c("colistin_use", "oxytetracycline_use")),
                amu_observation = make_outcome(., c("colistin_use", "oxytetracycline_use"), 2)) %>% 
  dplyr::filter(prophylactic(., c("malaise", "diarrhoea"),
                             c("colistin_use", "oxytetracycline_use"), 2, 2)) %>% 
  dplyr::select(amu, disease, week, amu_first_weeks, amu_observation) %>% 
  na.exclude())

## # A tibble: 2,411 x 5
##    amu   disease  week amu_first_weeks amu_observation
##    <lgl> <lgl>   <int> <lgl>           <lgl>          
##  1 TRUE  FALSE       1 TRUE            FALSE          
##  2 FALSE FALSE       4 TRUE            FALSE          
##  3 FALSE FALSE       5 TRUE            FALSE          
##  4 FALSE FALSE       6 TRUE            FALSE          
##  5 FALSE FALSE       7 TRUE            TRUE           
##  6 FALSE FALSE       8 TRUE            TRUE           
##  7 TRUE  FALSE       9 TRUE            TRUE           
##  8 FALSE FALSE      14 TRUE            TRUE           
##  9 FALSE FALSE      15 TRUE            TRUE           
## 10 TRUE  FALSE      16 TRUE            FALSE          
## #  with 2,401 more rows
…
These three variables week, amu_first_weeks and amu_observation are thus potential confounders that need to be corrected for.

Correcting for potential confounders

If one wants to consider (and correct for) covariables  such as age, AMU on the first week or AMU after the focal week (age of the birds) , the pipeline would look as below:

tmp %T>% print() %T>% {dplyr::group_by(., amu, disease, amu_first_weeks, amu_observation) %>% dplyr::tally() %>% dplyr::ungroup() %>% print()} %>%  
  glm(disease ~ amu_first_weeks + amu_observation + week + amu, binomial, .) %T>% {summary(.) %>% print()} %>% 
  anova(test = "LRT")

## # A tibble: 2,411 x 5
##    amu   disease  week amu_first_weeks amu_observation
##    <lgl> <lgl>   <int> <lgl>           <lgl>          
##  1 TRUE  FALSE       1 TRUE            FALSE          
##  2 FALSE FALSE       4 TRUE            FALSE          
##  3 FALSE FALSE       5 TRUE            FALSE          
##  4 FALSE FALSE       6 TRUE            FALSE          
##  5 FALSE FALSE       7 TRUE            TRUE           
##  6 FALSE FALSE       8 TRUE            TRUE           
##  7 TRUE  FALSE       9 TRUE            TRUE           
##  8 FALSE FALSE      14 TRUE            TRUE           
##  9 FALSE FALSE      15 TRUE            TRUE           
## 10 TRUE  FALSE      16 TRUE            FALSE          
## #  with 2,401 more rows
…
